{
    "id": 2502,
    "name": "ImageView",
    "authors": [{
        "first_name": "Ivan",
        "last_name": "Horvat",
        "email": "bokimare@mail.com",
        "web_page": "INVALID URL"
    }],
    "version": "1.0.0",
    "core_version": "1.0.0",
    "category": "editor",
    "licence": "MIT",
    "description": "Test plugin",
    "web_page": "INVALID URL"
}